-40 944 
-40 -40 896 
-40 -24 -8 -16 -24 840 
992 
992 
88 -40 848 
72 -24 880 
-80 -80 816 
-32 16 -24 112 -56 -104 600 
64 -64 -80 48 -64 -64 -80 472 
992 
-480 504 
-16 64 -120 -320 440 
-32 48 -112 776 
8 -80 -8 -80 520 -80 168 
