-40 944 
-40 -24 912 
40 -24 912 
72 -24 880 
120 -64 -40 744 
992 
992 
-32 952 
992 
-400 584 
-8 -8 -8 -8 -8 -8 -8 -8 -8 -8 -8 -8 -8 -8 -8 -8 -8 -8 -8 -8 -8 -8 -8 624 
72 -16 -8 -16 -8 -16 -8 792 
-8 -8 960 
-8 -8 960 
-8 -16 -24 -32 880 
992 
-16 40 -16 -160 728 
-112 -104 -96 -88 -80 -72 -64 -56 -48 -40 -32 -24 -16 -8 40 
-8 -24 -32 -40 856 
